<svg id="d01c7257-e6fa-4313-9268-a2f2d67b8581" data-name="Objects" xmlns="http://www.w3.org/2000/svg" viewBox="0 0 1099 96.15">
  <title>test</title>
  <g>
    <g>
      <path d="M568.4,66.85c1.8,6.1,8.1,11.7,15.9,12.7,14.1,1.8,28.5-5,40.2-12.9,6.2-4.2,11.5-9.6,18.2-12.9s15.5-3.9,21,1.1c5.7,5.3,5.4,15.2.3,21.1s-13.7,7.9-21.4,6.7-14.6-5.5-20.7-10.3S610.3,62,604.1,57.15c-2.3-1.7-4.7-3.4-7.5-4s-6,.2-7.6,2.6c-2.2,3.2-.1,8.1,3.5,9.7s7.8,0.7,11.2-1.4c9.1-5.5,12.2-18.4,7.7-27.9S595.7,21.05,585.1,22s-20.1,7.8-25.5,16.9a11,11,0,0,0-1.9,5.4c0,1.9.9,4,2.7,4.7s4.2-.4,5.4-2.1a12.23,12.23,0,0,0,1.7-5.9,42.49,42.49,0,0,0-18.1-37.5" transform="translate(-0.5 -2.45)" style="fill: none;stroke: #ce2b37;stroke-linecap: round;stroke-linejoin: round;stroke-width: 2px"/>
      <path d="M688.5,97c5.9,1.9,12.7-1.3,15.8-6.6s2.8-12.2.1-17.8-7.6-9.8-13.1-12.7a42.24,42.24,0,0,0-29.2-3.7c-11.7,2.8-21.6,10.5-31,18s-19,15.4-30.6,18.8-25.7,1-32.7-8.8" transform="translate(-0.5 -2.45)" style="fill: none;stroke: #ce2b37;stroke-linecap: round;stroke-linejoin: round;stroke-width: 2px"/>
    </g>
    <g>
      <path d="M530.6,66.85c-1.8,6.1-8.1,11.7-15.9,12.7-14.1,1.8-28.5-5-40.2-12.9-6.2-4.2-11.5-9.6-18.2-12.9s-15.5-3.9-21,1.1c-5.7,5.3-5.4,15.2-.3,21.1s13.7,7.9,21.4,6.7,14.6-5.5,20.7-10.3,11.6-10.4,17.8-15.2c2.3-1.7,4.7-3.4,7.5-4s6,0.2,7.6,2.6c2.2,3.2.1,8.1-3.5,9.7s-7.8.7-11.2-1.4c-9.1-5.5-12.2-18.4-7.7-27.9s15.7-15.1,26.3-14.2,20.1,7.8,25.5,16.9a11,11,0,0,1,1.9,5.4c0,1.9-.9,4-2.7,4.7s-4.2-.4-5.4-2.1a12.23,12.23,0,0,1-1.7-5.9,42.49,42.49,0,0,1,18.1-37.5" transform="translate(-0.5 -2.45)" style="fill: none;stroke: #ce2b37;stroke-linecap: round;stroke-linejoin: round;stroke-width: 2px"/>
      <path d="M410.4,97c-5.9,1.9-12.7-1.3-15.8-6.6s-2.8-12.2-.1-17.8,7.6-9.8,13.1-12.7a42.24,42.24,0,0,1,29.2-3.7c11.7,2.8,21.6,10.5,31,18s19,15.4,30.6,18.8,25.7,1,32.7-8.8" transform="translate(-0.5 -2.45)" style="fill: none;stroke: #ce2b37;stroke-linecap: round;stroke-linejoin: round;stroke-width: 2px"/>
    </g>
    <path d="M549.5,91.75c4.6-15.2,17.1-43.7,43.1-61.5,7.4-5.1,23.1-8.2,28.6-7.7a28.07,28.07,0,0,1,11.3,3.1c3.8,2,7,5.3,8.1,9.4s-0.1,9-3.5,11.5-9,1.9-11.3-1.7,0-9.3,4.2-9.8" transform="translate(-0.5 -2.45)" style="fill: none;stroke: #ce2b37;stroke-linecap: round;stroke-linejoin: round;stroke-width: 2px"/>
    <path d="M549.5,91.75c-4.6-15.2-17.1-43.7-43.1-61.5-7.4-5.1-23.1-8.2-28.6-7.7a28.07,28.07,0,0,0-11.3,3.1c-3.8,2-7,5.3-8.1,9.4s0.1,9,3.5,11.5,9,1.9,11.3-1.7,0-9.3-4.2-9.8" transform="translate(-0.5 -2.45)" style="fill: none;stroke: #ce2b37;stroke-linecap: round;stroke-linejoin: round;stroke-width: 2px"/>
  </g>
  <path d="M340.5,57.25H24.5a7,7,0,0,1-7.1,7c-3.9,0-15.8-6.9-15.9-7s11.9-7,15.9-7a7,7,0,0,1,7.1,7" transform="translate(-0.5 -2.45)" style="fill: none;stroke: #ce2b37;stroke-miterlimit: 10;stroke-width: 2px"/>
  <path d="M759.5,57.25h316a7,7,0,0,0,7.1,7c3.9,0,15.8-6.9,15.9-7s-11.9-7-15.9-7a7,7,0,0,0-7.1,7" transform="translate(-0.5 -2.45)" style="fill: none;stroke: #ce2b37;stroke-miterlimit: 10;stroke-width: 2px"/>
</svg>
