<?xml version="1.0" encoding="utf-8"?>
<!-- Generator: Adobe Illustrator 19.2.1, SVG Export Plug-In . SVG Version: 6.00 Build 0)  -->
<svg version="1.1" id="Objects" xmlns="http://www.w3.org/2000/svg" xmlns:xlink="http://www.w3.org/1999/xlink" x="0px" y="0px"
	 viewBox="0 0 1222 800" style="enable-background:new 0 0 1222 800;" xml:space="preserve">
<style type="text/css">
	.st0{fill:none;stroke:#000000;stroke-width:2;stroke-linecap:round;stroke-linejoin:round;stroke-miterlimit:10;}
	.st1{fill:none;stroke:#000000;stroke-width:2;stroke-miterlimit:10;}
</style>
<g>
	<g>
		<path class="st0" d="M630.4,321.6c1.8,6.1,8.1,11.7,15.9,12.7c14.1,1.8,28.5-5,40.2-12.9c6.2-4.2,11.5-9.6,18.2-12.9
			s15.5-3.9,21,1.1c5.7,5.3,5.4,15.2,0.3,21.1c-5.1,5.9-13.7,7.9-21.4,6.7c-7.7-1.3-14.6-5.5-20.7-10.3
			c-6.1-4.8-11.6-10.4-17.8-15.2c-2.3-1.7-4.7-3.4-7.5-4c-2.8-0.6-6,0.2-7.6,2.6c-2.2,3.2-0.1,8.1,3.5,9.7c3.5,1.6,7.8,0.7,11.2-1.4
			c9.1-5.5,12.2-18.4,7.7-27.9c-4.6-9.5-15.7-15.1-26.3-14.2c-10.5,0.9-20.1,7.8-25.5,16.9c-1,1.7-1.9,3.5-1.9,5.4
			c0,1.9,0.9,4,2.7,4.7c1.9,0.7,4.2-0.4,5.4-2.1c1.2-1.7,1.5-3.9,1.7-5.9c1.1-14.5-6.1-29.3-18.1-37.5"/>
		<path class="st0" d="M750.5,351.8c5.9,1.9,12.7-1.3,15.8-6.6c3.1-5.3,2.8-12.2,0.1-17.8c-2.7-5.5-7.6-9.8-13.1-12.7
			c-8.9-4.7-19.4-6-29.2-3.7c-11.7,2.8-21.6,10.5-31,18c-9.4,7.6-19,15.4-30.6,18.8c-11.6,3.4-25.7,1-32.7-8.8"/>
	</g>
	<g>
		<path class="st0" d="M592.6,321.6c-1.8,6.1-8.1,11.7-15.9,12.7c-14.1,1.8-28.5-5-40.2-12.9c-6.2-4.2-11.5-9.6-18.2-12.9
			c-6.7-3.3-15.5-3.9-21,1.1c-5.7,5.3-5.4,15.2-0.3,21.1c5.1,5.9,13.7,7.9,21.4,6.7c7.7-1.3,14.6-5.5,20.7-10.3
			c6.1-4.8,11.6-10.4,17.8-15.2c2.3-1.7,4.7-3.4,7.5-4c2.8-0.6,6,0.2,7.6,2.6c2.2,3.2,0.1,8.1-3.5,9.7c-3.5,1.6-7.8,0.7-11.2-1.4
			c-9.1-5.5-12.2-18.4-7.7-27.9c4.6-9.5,15.7-15.1,26.3-14.2c10.5,0.9,20.1,7.8,25.5,16.9c1,1.7,1.9,3.5,1.9,5.4
			c0,1.9-0.9,4-2.7,4.7c-1.9,0.7-4.2-0.4-5.4-2.1c-1.2-1.7-1.5-3.9-1.7-5.9c-1.1-14.5,6.1-29.3,18.1-37.5"/>
		<path class="st0" d="M472.4,351.8c-5.9,1.9-12.7-1.3-15.8-6.6c-3.1-5.3-2.8-12.2-0.1-17.8c2.7-5.5,7.6-9.8,13.1-12.7
			c8.9-4.7,19.4-6,29.2-3.7c11.7,2.8,21.6,10.5,31,18c9.4,7.6,19,15.4,30.6,18.8c11.6,3.4,25.7,1,32.7-8.8"/>
	</g>
	<path class="st0" d="M611.5,346.5c4.6-15.2,17.1-43.7,43.1-61.5c7.4-5.1,23.1-8.2,28.6-7.7c4.2,0.4,7.5,1.1,11.3,3.1
		c3.8,2,7,5.3,8.1,9.4c1.2,4.1-0.1,9-3.5,11.5c-3.4,2.5-9,1.9-11.3-1.7c-2.3-3.6,0-9.3,4.2-9.8"/>
	<path class="st0" d="M611.5,346.5c-4.6-15.2-17.1-43.7-43.1-61.5c-7.4-5.1-23.1-8.2-28.6-7.7c-4.2,0.4-7.5,1.1-11.3,3.1
		c-3.8,2-7,5.3-8.1,9.4c-1.2,4.1,0.1,9,3.5,11.5c3.4,2.5,9,1.9,11.3-1.7c2.3-3.6,0-9.3-4.2-9.8"/>
</g>
<path class="st1" d="M402.5,312c0,0-316,0-316,0c0,3.9-3.2,7-7.1,7s-15.8-6.9-15.9-7c-0.1-0.1,11.9-7,15.9-7s7.1,3.1,7.1,7"/>
<path class="st1" d="M821.5,312c0,0,316,0,316,0c0,3.9,3.2,7,7.1,7c3.9,0,15.8-6.9,15.9-7c0.1-0.1-11.9-7-15.9-7
	c-3.9,0-7.1,3.1-7.1,7"/>
</svg>
