<?xml version="1.0" encoding="utf-8"?>
<!-- Generator: Adobe Illustrator 19.2.1, SVG Export Plug-In . SVG Version: 6.00 Build 0)  -->
<svg version="1.1" id="Objects" xmlns="http://www.w3.org/2000/svg" xmlns:xlink="http://www.w3.org/1999/xlink" x="0px" y="0px"
	 viewBox="0 0 1336 800" style="enable-background:new 0 0 1336 800;" xml:space="preserve">
<style type="text/css">
	.st0{fill:none;stroke:#000000;stroke-width:3;stroke-linecap:round;stroke-linejoin:round;stroke-miterlimit:10;}
	.st1{fill-rule:evenodd;clip-rule:evenodd;stroke-width:1;}
</style>
<g>

		<g>
			<path class="st0" d="M685,388c1.6,5.5,7.3,10.6,14.3,11.5c12.7,1.6,25.7-4.5,36.3-11.7c5.6-3.8,10.4-8.7,16.5-11.6s14-3.5,19,1
				c5.2,4.8,4.9,13.8,0.2,19.1s-12.3,7.2-19.3,6c-6.9-1.2-13.2-4.9-18.7-9.3c-5.5-4.4-10.5-9.4-16-13.7c-2-1.6-4.2-3.1-6.7-3.6
				c-2.5-0.5-5.4,0.2-6.9,2.4c-2,2.9-0.1,7.3,3.1,8.8c3.2,1.5,7.1,0.6,10.1-1.2c8.2-4.9,11.1-16.6,6.9-25.2
				c-4.1-8.6-14.2-13.6-23.7-12.8c-9.5,0.8-18.2,7-23,15.3c-0.9,1.5-1.7,3.1-1.7,4.9c0,1.7,0.8,3.6,2.5,4.2c1.8,0.7,3.8-0.3,4.9-1.9
				c1.1-1.5,1.4-3.5,1.5-5.4c1-13.1-5.5-26.5-16.3-33.9"/>
			<path class="st0" d="M793.5,415.2c5.3,1.7,11.5-1.2,14.3-6c2.8-4.8,2.5-11,0.1-16c-2.5-5-6.9-8.8-11.8-11.4
				c-8-4.2-17.5-5.4-26.3-3.3c-10.6,2.5-19.5,9.4-27.9,16.3c-8.5,6.8-17.1,13.9-27.6,17c-10.4,3-23.2,0.9-29.5-7.9"/>
		</g>
		<g>
			<path class="st0" d="M651,388c-1.6,5.5-7.3,10.6-14.3,11.5c-12.7,1.6-25.7-4.5-36.3-11.7c-5.6-3.8-10.4-8.7-16.5-11.6
				c-6-3-14-3.5-19,1c-5.2,4.8-4.9,13.8-0.2,19.1c4.6,5.3,12.3,7.2,19.3,6c6.9-1.2,13.2-4.9,18.7-9.3c5.5-4.4,10.5-9.4,16-13.7
				c2-1.6,4.2-3.1,6.7-3.6c2.5-0.5,5.4,0.2,6.9,2.4c2,2.9,0.1,7.3-3.1,8.8c-3.2,1.5-7.1,0.6-10.1-1.2c-8.2-4.9-11.1-16.6-6.9-25.2
				c4.1-8.6,14.2-13.6,23.7-12.8c9.5,0.8,18.2,7,23,15.3c0.9,1.5,1.7,3.1,1.7,4.9c0,1.7-0.8,3.6-2.5,4.2c-1.8,0.7-3.8-0.3-4.9-1.9
				c-1.1-1.5-1.4-3.5-1.5-5.4c-1-13.1,5.5-26.5,16.3-33.9"/>
			<path class="st0" d="M542.5,415.2c-5.3,1.7-11.5-1.2-14.3-6c-2.8-4.8-2.5-11-0.1-16c2.5-5,6.9-8.8,11.8-11.4
				c8-4.2,17.5-5.4,26.3-3.3c10.6,2.5,19.5,9.4,27.9,16.3c8.5,6.8,17.1,13.9,27.6,17c10.4,3,23.2,0.9,29.5-7.9"/>
		</g>
		<path class="st0" d="M668,410.5c4.1-13.7,15.4-39.5,38.9-55.5c6.7-4.6,20.9-7.4,25.8-6.9c3.8,0.3,6.8,1,10.2,2.8
			c3.4,1.8,6.3,4.8,7.3,8.5c1,3.7-0.1,8.1-3.2,10.4c-3.1,2.3-8.1,1.7-10.2-1.5c-2.1-3.2,0-8.4,3.8-8.9"/>
		<path class="st0" d="M668,410.5c-4.1-13.7-15.4-39.5-38.9-55.5c-6.7-4.6-20.9-7.4-25.8-6.9c-3.8,0.3-6.8,1-10.2,2.8
			c-3.4,1.8-6.3,4.8-7.3,8.5c-1,3.7,0.1,8.1,3.2,10.4c3.1,2.3,8.1,1.7,10.2-1.5c2.1-3.2,0-8.4-3.8-8.9"/>



            <g>

            <path class="st0 st1" d="M858.1,378.8h288v2h-288V378.8z M1153,387.5c-4.3,0-7.9-3.4-7.9-7.5s3.5-7.5,7.9-7.5c3.2,0,17.1,7.5,17.1,7.5S1157.1,387.5,1153,387.5z M1153,374.3
                    c-3.3,0-5.9,2.5-5.9,5.6s2.7,5.6,5.9,5.6c2.7,0,10.2-3.9,13.4-5.6C1163.2,378.1,1155.6,374.3,1153,374.3z"/>
            </g>

        <g>

            <path class="st0 st1" d="M479.1,380.7h-288v-2h288V380.7z M184.2,372c4.3,0,7.9,3.4,7.9,7.5s-3.5,7.5-7.9,7.5c-3.2,0-17.1-7.5-17.1-7.5S180.1,372,184.2,372z M184.2,385.2
                c3.3,0,5.9-2.5,5.9-5.6s-2.7-5.6-5.9-5.6c-2.7,0-10.2,3.9-13.4,5.6C174,381.4,181.6,385.2,184.2,385.2z"/>
        </g>


</g>
</svg>
