<?xml version="1.0" encoding="utf-8"?>
<!-- Generator: Adobe Illustrator 19.2.1, SVG Export Plug-In . SVG Version: 6.00 Build 0)  -->
<svg version="1.1" id="Objects" xmlns="http://www.w3.org/2000/svg" xmlns:xlink="http://www.w3.org/1999/xlink" x="0px" y="0px"
	 viewBox="0 0 1336 800" style="enable-background:new 0 0 1336 800;" xml:space="preserve">
	 <style type="text/css">
     	.st0{fill:none;stroke:#000000;stroke-width:2;stroke-linecap:round;stroke-linejoin:round;stroke-miterlimit:10;}
     	.st1{fill-rule:evenodd;clip-rule:evenodd;}
     </style>
<g>
	<path class="st0" d="M796.5,380.9c-7.4-3.9-16.1-5.3-24.3-4c-0.1-0.2-0.3-0.3-0.4-0.5c-5.4-5-14-4.2-20.1-1.2c-3.9,1.9-7.4,4.7-10.8,7.3
		c-1.9,1.5-3.8,3-5.8,4.4c-1.4,1-2.8,1.9-4.2,2.7c-1.5-1.3-3-2.7-4.5-4c-1.4-1.2-2.7-2.4-4.1-3.7c4.7-6,5.9-14.9,2.4-22.1
		c-1.6-3.3-4-6.2-7-8.4c6-1.7,12.2-2.6,14.9-2.4c3.5,0.3,6.4,0.9,9.8,2.7c3.5,1.8,6,4.7,6.8,7.9c1,3.5-0.2,7.4-2.8,9.3
		c-1.4,1-3.3,1.4-5.1,1.1c-1.6-0.3-2.9-1.1-3.7-2.3c-0.8-1.3-0.9-3.2-0.1-4.8c0.7-1.4,1.9-2.4,3.2-2.5c0.5-0.1,0.9-0.6,0.9-1.1
		c-0.1-0.5-0.6-0.9-1.1-0.9c-2,0.2-3.8,1.6-4.8,3.7c-1.1,2.3-1,4.8,0.3,6.7c1.1,1.7,2.9,2.8,5,3.2c2.3,0.4,4.8-0.1,6.6-1.4
		c3.3-2.4,4.8-7.1,3.6-11.4c-1-3.7-3.9-7-7.8-9.1c-3.7-2-6.9-2.6-10.6-2.9c-3.2-0.3-10.6,0.8-17.3,2.9c-4.5-2.7-10-4-15.5-3.5
		c-5.6,0.5-11.1,2.8-15.7,6.5c-2.2-9.2-7.8-17.6-15.7-23c0,0,0,0,0,0c-0.1,0-0.2-0.1-0.2-0.1c0,0-0.1,0-0.1-0.1c-0.1,0-0.1,0-0.2,0
		c-0.1,0-0.1,0-0.2,0c0,0-0.1,0-0.1,0.1c-0.1,0-0.2,0-0.2,0.1c0,0,0,0,0,0c-7.9,5.4-13.5,13.8-15.7,23c-4.6-3.7-10.1-6-15.7-6.5
		c-5.5-0.5-11,0.9-15.5,3.5c-6.7-2.1-14.1-3.2-17.3-2.9c-3.7,0.3-6.9,0.9-10.6,2.9c-3.9,2.1-6.8,5.4-7.8,9.1
		c-1.2,4.3,0.2,9,3.6,11.4c1.8,1.3,4.3,1.9,6.6,1.4c2.1-0.4,3.9-1.5,5-3.2c1.2-1.9,1.3-4.5,0.3-6.7c-1-2.1-2.8-3.5-4.8-3.7
		c-0.5-0.1-1,0.3-1.1,0.9c-0.1,0.5,0.3,1,0.9,1.1c1.3,0.2,2.5,1.1,3.2,2.6c0.8,1.6,0.7,3.5-0.1,4.8c-0.8,1.2-2.1,2-3.7,2.3
		c-1.8,0.3-3.7-0.1-5.1-1.1c-2.6-1.9-3.8-5.8-2.8-9.3c0.9-3.2,3.4-6,6.8-7.9c3.4-1.8,6.3-2.4,9.8-2.7c2.7-0.2,9,0.6,15,2.4
		c-3,2.2-5.4,5.1-7,8.4c-3.5,7.2-2.2,16.1,2.4,22.1c-1.4,1.2-2.8,2.4-4.1,3.7c-1.5,1.3-3,2.7-4.5,4c-1.4-0.8-2.8-1.7-4.2-2.7
		c-2-1.4-3.9-2.9-5.8-4.4c-3.4-2.6-6.8-5.4-10.8-7.3c-6.1-3-14.7-3.8-20.1,1.2c-0.2,0.1-0.3,0.3-0.4,0.5c-8.2-1.3-16.9,0.1-24.3,4
		c-3.9,2.1-9.3,5.8-12.2,11.9c-2.8,5.6-2.7,12.1,0.1,17c2.5,4.3,7.3,7,12,7c1.2,0,2.3-0.2,3.4-0.5c0.5-0.2,0.8-0.7,0.6-1.3
		s-0.7-0.8-1.3-0.6c-4.7,1.5-10.4-0.9-13.1-5.5c-2.5-4.3-2.5-10.1,0-15.1c2.7-5.6,7.7-9,11.4-11c6.6-3.5,14.4-4.9,21.9-3.9
		c-3.4,5.2-2.9,13,1.6,18.2c3.7,4.3,9.6,6.7,15.9,6.7c1.4,0,2.8-0.1,4.3-0.4c4.2-0.7,8.4-2.4,12.9-5.1c7.5,6,15.3,11.8,24.6,14.5
		c9.9,2.9,23.6,1.5,30.6-8.3c0.3-0.5,0.2-1.1-0.2-1.4c-0.5-0.3-1.1-0.2-1.4,0.2c-6.4,9-19.2,10.2-28.4,7.6
		c-8.7-2.5-16.2-8-23.4-13.7c1.5-1,3-2.1,4.5-3.3c0.7-0.5,1.3-1.1,2-1.6c11.4,6.7,22,9.5,31.5,8.3c7.1-0.9,13.4-5.9,15.2-12.2
		c0.2-0.5-0.2-1.1-0.7-1.2c-0.5-0.2-1.1,0.2-1.2,0.7c-1.6,5.4-7.2,10-13.5,10.8c-8.9,1.1-18.8-1.5-29.6-7.7c1.4-1.2,2.7-2.4,4-3.6
		c1.3-1.2,2.7-2.4,4.1-3.6c1.1,1.1,2.2,2.1,3.6,2.9c3.7,2.2,7.8,2.7,11,1.3c2-0.9,3.6-2.8,4.2-5c0.5-1.9,0.3-3.7-0.7-5.2
		c-1.8-2.7-5.2-3.3-7.9-2.8c-2.7,0.5-5,2.1-7.2,3.8c-1,0.7-1.9,1.5-2.8,2.3c-4.2-5.4-5.3-13.5-2.2-20c1.6-3.4,4.4-6.4,7.7-8.5
		c3,1,5.7,2.2,7.8,3.6c25.6,17.5,35.9,46.5,38.5,54.9c0,0,0,0.1,0.1,0.1c0,0,0,0.1,0.1,0.1c0,0.1,0.1,0.1,0.2,0.2c0,0,0,0.1,0.1,0.1
		c0.1,0.1,0.2,0.1,0.3,0.2c0,0,0,0,0,0c0.1,0,0.2,0,0.3,0c0,0,0,0,0,0c0,0,0,0,0,0s0,0,0,0c0,0,0,0,0,0c0.1,0,0.2,0,0.3,0
		c0,0,0,0,0,0c0.1,0,0.2-0.1,0.3-0.2c0,0,0,0,0.1-0.1c0.1-0.1,0.1-0.1,0.2-0.2c0,0,0-0.1,0.1-0.1c0,0,0-0.1,0.1-0.1
		c2.6-8.5,12.9-37.4,38.5-54.9c2-1.4,4.8-2.6,7.8-3.6c3.3,2.1,6.1,5,7.7,8.5c3.1,6.5,2,14.6-2.2,20c-0.9-0.8-1.9-1.5-2.8-2.3
		c-2.1-1.6-4.5-3.2-7.2-3.8c-2.7-0.5-6.1,0.1-7.9,2.8c-1,1.5-1.2,3.3-0.7,5.2c0.6,2.2,2.2,4.1,4.2,5c3.2,1.4,7.3,1,11-1.3
		c1.3-0.8,2.5-1.8,3.6-2.9c1.4,1.2,2.8,2.4,4.1,3.6c1.3,1.2,2.7,2.4,4,3.6c-10.8,6.3-20.8,8.9-29.6,7.7c-6.3-0.8-11.9-5.3-13.5-10.8
		c-0.2-0.5-0.7-0.8-1.2-0.7c-0.5,0.2-0.8,0.7-0.7,1.2c1.8,6.3,8,11.3,15.2,12.2c9.5,1.2,20-1.6,31.5-8.3c0.7,0.6,1.3,1.1,2,1.6
		c1.5,1.2,3,2.3,4.5,3.3c-7.2,5.7-14.7,11.2-23.4,13.7c-9.2,2.7-22,1.5-28.4-7.6c-0.3-0.4-0.9-0.6-1.4-0.2c-0.5,0.3-0.6,0.9-0.2,1.4
		c7,9.8,20.8,11.2,30.6,8.3c9.3-2.7,17.1-8.5,24.6-14.5c4.4,2.7,8.7,4.4,12.9,5.1c1.4,0.2,2.9,0.4,4.3,0.4c6.4,0,12.2-2.4,15.9-6.7
		c4.5-5.2,5-13,1.6-18.2c7.5-0.9,15.2,0.4,21.9,3.9c3.7,1.9,8.6,5.4,11.4,11c2.5,5,2.5,10.8,0,15.1c-2.7,4.6-8.4,7-13.1,5.5
		c-0.5-0.2-1.1,0.1-1.3,0.6c-0.2,0.5,0.1,1.1,0.6,1.3c1.1,0.4,2.3,0.5,3.4,0.5c4.7,0,9.5-2.7,12-7c2.8-4.9,2.9-11.4,0.1-17
		C805.7,386.7,800.4,383,796.5,380.9z M583.8,401.3c-7.1,1.2-14.3-1-18.4-5.7c-4.1-4.8-4.4-12.1-0.9-16.5c0.5,0.1,1,0.2,1.6,0.3
		c10,2.4,18.4,8.7,27.5,16.1l0.4,0.3c0.4,0.3,0.8,0.7,1.3,1C591.3,399.2,587.5,400.6,583.8,401.3z M602,392.2
		c-1.7,1.3-3.3,2.5-4.9,3.5c-0.6-0.5-1.2-1-1.8-1.5l-0.4-0.3c-9.3-7.5-17.9-14-28.3-16.5c-0.1,0-0.2,0-0.3-0.1
		c2.3-1.8,5.1-2.5,8-2.5c3.2,0,6.4,0.9,9.2,2.2c3.8,1.8,7.1,4.5,10.4,7.1c1.9,1.5,3.9,3.1,5.9,4.5c1.2,0.8,2.5,1.6,3.7,2.4
		C603,391.4,602.5,391.8,602,392.2z M619.3,380c2.2-1.7,4.2-3,6.3-3.4c1.9-0.4,4.6,0,5.8,1.9c0.6,1,0.8,2.2,0.4,3.5
		c-0.5,1.6-1.7,3.1-3.1,3.8c-2.6,1.2-6,0.7-9.1-1.2c-1.1-0.7-2.2-1.5-3.1-2.4C617.5,381.5,618.4,380.7,619.3,380z M683.3,364.6
		c-0.1,1.6-0.4,3.5-1.4,4.9c-0.8,1.1-2.4,2-3.7,1.5c-1.2-0.5-1.9-2-1.8-3.3c0-1.6,0.8-3.1,1.6-4.4c1.4-2.4,3.1-4.6,5-6.4
		C683.4,359.4,683.5,362,683.3,364.6z M653,356.8c1.9,1.9,3.6,4.1,5,6.4c0.8,1.3,1.5,2.8,1.6,4.4c0,1.3-0.6,2.8-1.8,3.3
		c-1.4,0.5-2.9-0.4-3.7-1.5c-1-1.4-1.2-3.2-1.4-4.9C652.5,362,652.6,359.4,653,356.8z M706.3,354.2c-23.7,16.2-34.5,41.9-38.3,53
		c-3.8-11.1-14.6-36.8-38.3-53c-1.8-1.2-4.1-2.3-6.6-3.3c3.9-1.9,8.3-2.8,12.7-2.5c5.5,0.5,11,2.9,15.4,6.7
		c-0.6,3.1-0.8,6.3-0.5,9.5c0.1,1.9,0.5,4.1,1.7,5.9c1.3,1.8,3.7,3.1,6.1,2.2c1.9-0.7,3.2-2.9,3.1-5.2c0-2-1-3.9-1.9-5.4
		c-1.7-2.9-3.9-5.6-6.3-7.8c1.9-8.9,7.1-17.1,14.6-22.4c7.5,5.3,12.7,13.5,14.6,22.4c-2.5,2.2-4.6,4.8-6.3,7.8
		c-0.9,1.5-1.8,3.3-1.9,5.4c-0.1,2.3,1.2,4.5,3.1,5.2c2.3,0.9,4.8-0.4,6.1-2.2c1.3-1.8,1.6-4,1.7-5.9c0.2-3.2,0-6.4-0.5-9.5
		c4.5-3.8,9.9-6.2,15.4-6.7c4.4-0.4,8.8,0.5,12.7,2.5C710.4,351.9,708.1,353,706.3,354.2z M716.4,384.7c-3.2,1.9-6.6,2.3-9.1,1.2
		c-1.5-0.7-2.7-2.1-3.1-3.8c-0.4-1.3-0.2-2.6,0.4-3.5c1-1.5,2.8-2.1,4.5-2.1c0.5,0,0.9,0,1.3,0.1c2.2,0.4,4.1,1.7,6.3,3.4
		c0.9,0.7,1.8,1.5,2.7,2.2C718.5,383.2,717.5,384,716.4,384.7z M738.9,395.7c-1.6-1-3.2-2.2-4.9-3.5c-0.5-0.4-1-0.8-1.4-1.2
		c1.2-0.8,2.5-1.6,3.7-2.4c2-1.4,4-2.9,5.9-4.5c3.3-2.6,6.7-5.3,10.4-7.1c5.2-2.6,12.4-3.4,17.2,0.3c-0.1,0-0.2,0-0.3,0.1
		c-10.5,2.5-19,8.9-28.3,16.5l-0.4,0.3C740.1,394.7,739.5,395.2,738.9,395.7z M770.6,395.6c-4,4.6-11.2,6.9-18.4,5.7
		c-3.7-0.6-7.6-2.1-11.5-4.5c0.4-0.3,0.8-0.7,1.3-1l0.4-0.3c9.1-7.4,17.5-13.7,27.5-16.1c0.5-0.1,1-0.2,1.6-0.3
		C775,383.5,774.7,390.8,770.6,395.6z"/>
	<path d="M1153,372.4c-3.9,0-7.2,2.8-7.8,6.5H858.1v2h287.1c0.5,3.7,3.8,6.6,7.8,6.6c4.1,0,17.1-7.6,17.1-7.6
		S1156.2,372.4,1153,372.4z M1147,379.9c0-3.1,2.7-5.6,5.9-5.6c2.7,0,10.3,3.8,13.4,5.6c-3.2,1.8-10.7,5.6-13.4,5.6
		C1149.7,385.5,1147,383,1147,379.9z"/>
	<path d="M184.2,372c-4.1,0-17.1,7.6-17.1,7.6s13.9,7.5,17.1,7.5c3.9,0,7.2-2.8,7.8-6.5h287.1v-2H192
		C191.6,374.9,188.3,372,184.2,372z M184.2,385.2c-2.7,0-10.3-3.8-13.4-5.6c3.2-1.8,10.7-5.6,13.4-5.6c3.3,0,5.9,2.5,5.9,5.6
		S187.5,385.2,184.2,385.2z"/>
</g>
</svg>
